{"count":1292,"next":"https://pokeapi.co/api/v2/pokemon?offset=1281&limit=11","previous":null,"results":[{"name":"bulbasaur","url":"https://pokeapi.co/api/v2/pokemon/1/"},{"name":"ivysaur","url":"https://pokeapi.co/api/v2/pokemon/2/"}]}